%YAML 1.1
%TAG !u! tag:unity3d.com,2011:
--- !u!1 &7326994307256938977
GameObject:
  m_ObjectHideFlags: 0
  m_CorrespondingSourceObject: {fileID: 0}
  m_PrefabInstance: {fileID: 0}
  m_PrefabAsset: {fileID: 0}
  serializedVersion: 6
  m_Component:
  - component: {fileID: 2884397654381822200}
  - component: {fileID: 9001747063141864391}
  m_Layer: 0
  m_Name: Monetisation Manager
  m_TagString: Untagged
  m_Icon: {fileID: 0}
  m_NavMeshLayer: 0
  m_StaticEditorFlags: 0
  m_IsActive: 1
--- !u!4 &2884397654381822200
Transform:
  m_ObjectHideFlags: 0
  m_CorrespondingSourceObject: {fileID: 0}
  m_PrefabInstance: {fileID: 0}
  m_PrefabAsset: {fileID: 0}
  m_GameObject: {fileID: 7326994307256938977}
  m_LocalRotation: {x: 0, y: 0, z: 0, w: 1}
  m_LocalPosition: {x: 0, y: 0, z: 0}
  m_LocalScale: {x: 1, y: 1, z: 1}
  m_Children: []
  m_Father: {fileID: 0}
  m_RootOrder: 0
  m_LocalEulerAnglesHint: {x: 0, y: 0, z: 0}
--- !u!114 &9001747063141864391
MonoBehaviour:
  m_ObjectHideFlags: 0
  m_CorrespondingSourceObject: {fileID: 0}
  m_PrefabInstance: {fileID: 0}
  m_PrefabAsset: {fileID: 0}
  m_GameObject: {fileID: 7326994307256938977}
  m_Enabled: 1
  m_EditorHideFlags: 0
  m_Script: {fileID: 11500000, guid: ea8a7b752e12835429e855a91c30d93e, type: 3}
  m_Name: 
  m_EditorClassIdentifier: 
  EnableMonetisation: 0
  ActivateAds: 0
  ActivateBanner: 0
  TEST_MODE: 0
  TestDeviceId: 
  ResetTimerWithRewarded: 1
  AdShowingFrequency: 30
  MAX_iOS_interstitialAdUnitId: 
  MAX_iOS_rewardedAdUnitId: 
  MAX_iOS_bannerAdUnitId: 
  MAX_Android_interstitialAdUnitId: 
  MAX_Android_rewardedAdUnitId: 
  MAX_Android_bannerAdUnitId: 
  MAX_BannerBackgroundColor: {r: 0, g: 0, b: 0, a: 0}
  lastRewardedButtonClicked: {fileID: 0}
