%YAML 1.1
%TAG !u! tag:unity3d.com,2011:
--- !u!78 &1
TagManager:
  serializedVersion: 2
  tags:
  - Wall
  - Trampoline
  - Platforme
  - IA
  - Missile
  - PerfectSpot
  - LastPlatformFinisher
  layers:
  - Default
  - TransparentFX
  - Ignore Raycast
  - 
  - Water
  - UI
  - 
  - 
  - Wall
  - Platform
  - Runners
  - PowerUp
  - CharacterRagdoll
  - 
  - 
  - 
  - 
  - 
  - 
  - 
  - 
  - 
  - 
  - 
  - 
  - 
  - 
  - 
  - 
  - 
  - 
  - 
  m_SortingLayers:
  - name: Default
    uniqueID: 0
    locked: 0
  - name: Layer 1
    uniqueID: 877508819
    locked: 0
  - name: Layer 2
    uniqueID: 286512415
    locked: 0
  - name: Layer 3
    uniqueID: 3965313247
    locked: 0
